N=100
SIGMA=1.000000
EPSILON=3.000000
DT=0.000100
T=0.000100
XMIN=-1.000000
XMAX=19.000000
YMIN=-1.000000
YMAX=19.000000
ITERATIONS=1
  2.000001   2.000001   0.008345   0.008345
  1.999998  -0.000002  -0.020508  -0.020508
 -0.000001   1.999999  -0.008264  -0.008264
  0.000002   0.000002   0.023595   0.023595
  8.000002   2.000002   0.024986   0.024986
  8.000000  -0.000000  -0.002898  -0.002898
  5.999998   1.999998  -0.019635  -0.019635
  6.000002   0.000002   0.018306   0.018306
  3.999998   1.999998  -0.017126  -0.017126
  4.000001   0.000001   0.005790   0.005790
 11.999999   1.999999  -0.007775  -0.007775
 11.999998  -0.000002  -0.021164  -0.021164
 10.000002   2.000002   0.018909   0.018909
 10.000001   0.000001   0.014560   0.014560
 18.000000   2.000000   0.000918   0.000918
 18.000000   0.000000   0.000829   0.000829
 15.999999   1.999999  -0.007334  -0.007334
 16.000000  -0.000000  -0.000909  -0.000909
 13.999999   1.999999  -0.007324  -0.007324
 14.000001   0.000001   0.006075   0.006075
  2.000001   8.000001   0.011612   0.011612
  1.999998   5.999998  -0.021487  -0.021487
  2.000001   4.000001   0.007183   0.007183
  0.000001   8.000001   0.009904   0.009904
 -0.000001   5.999999  -0.012465  -0.012465
  0.000002   4.000002   0.023390   0.023390
  8.000001   8.000001   0.009635   0.009635
  8.000002   6.000002   0.019812   0.019812
  8.000002   4.000002   0.024252   0.024252
  5.999999   7.999999  -0.005004  -0.005004
  5.999999   5.999999  -0.005927  -0.005927
  6.000002   4.000002   0.015352   0.015352
  3.999999   7.999999  -0.013459  -0.013459
  4.000002   6.000002   0.015819   0.015819
  4.000002   4.000002   0.017944   0.017944
 12.000001   8.000001   0.009256   0.009256
 12.000000   6.000000   0.000349   0.000349
 12.000002   4.000002   0.021310   0.021310
 10.000002   8.000002   0.017926   0.017926
  9.999999   5.999999  -0.010171  -0.010171
  9.999998   3.999998  -0.015773  -0.015773
 17.999999   7.999999  -0.007095  -0.007095
 18.000001   6.000001   0.006996   0.006996
 17.999999   3.999999  -0.005424  -0.005424
 16.000001   8.000001   0.012036   0.012036
 16.000002   6.000002   0.022276   0.022276
 16.000000   4.000000   0.002752   0.002752
 14.000002   8.000002   0.015081   0.015081
 14.000001   6.000001   0.006878   0.006878
 14.000001   4.000001   0.006829   0.006829
  1.999999  11.999999  -0.013017  -0.013017
  1.999998   9.999998  -0.016853  -0.016853
  0.000002  12.000002   0.016308   0.016308
 -0.000002   9.999998  -0.023518  -0.023518
  8.000000  12.000000  -0.003509  -0.003509
  7.999999   9.999999  -0.011825  -0.011825
  6.000002  12.000002   0.018765   0.018765
  6.000000  10.000000   0.001656   0.001656
  4.000000  12.000000  -0.004846  -0.004846
  3.999998   9.999998  -0.024200  -0.024200
 12.000001  12.000001   0.011276   0.011276
 11.999998   9.999998  -0.017460  -0.017460
  9.999998  11.999998  -0.022743  -0.022743
  9.999998   9.999998  -0.022232  -0.022232
 17.999998  11.999998  -0.021605  -0.021605
 18.000002  10.000002   0.019601   0.019601
 16.000000  12.000000   0.002055   0.002055
 16.000002  10.000002   0.023076   0.023076
 13.999999  11.999999  -0.007591  -0.007591
 14.000002  10.000002   0.015332   0.015332
  2.000001  18.000001   0.009591   0.009591
  1.999998  15.999998  -0.019656  -0.019656
  1.999999  13.999999  -0.005229  -0.005229
  0.000001  18.000001   0.007270   0.007270
  0.000002  16.000002   0.017779   0.017779
 -0.000002  13.999998  -0.018535  -0.018535
  8.000001  18.000001   0.008799   0.008799
  7.999998  15.999998  -0.017749  -0.017749
  8.000000  14.000000   0.000709   0.000709
  5.999998  17.999998  -0.023529  -0.023529
  5.999998  15.999998  -0.016374  -0.016374
  6.000002  14.000002   0.021918   0.021918
  4.000000  18.000000  -0.001774  -0.001774
  4.000002  16.000002   0.019676   0.019676
  4.000002  14.000002   0.019392   0.019392
 11.999998  17.999998  -0.020531  -0.020531
 12.000001  16.000001   0.006751   0.006751
 11.999999  13.999999  -0.012950  -0.012950
 10.000002  18.000002   0.023686   0.023686
  9.999999  15.999999  -0.012312  -0.012312
 10.000000  14.000000   0.001345   0.001345
 18.000002  18.000002   0.024864   0.024864
 18.000000  16.000000  -0.000752  -0.000752
 18.000000  14.000000  -0.001824  -0.001824
 15.999999  17.999999  -0.010965  -0.010965
 15.999998  15.999998  -0.020439  -0.020439
 16.000001  14.000001   0.012913   0.012913
 14.000000  18.000000   0.001876   0.001876
 13.999999  15.999999  -0.006617  -0.006617
 14.000001  14.000001   0.008898   0.008898
